dump.vcd
$date
	Wed Mar 20 20:12:18 2024
$end
$version
	QuestaSim Version 2023.3
$end
$timescale
	1ns
$end

$scope module top $end
$var reg 1 ! CLK $end
$var reg 1 " RESET $end
$var reg 1 # CS1 $end
$var reg 1 $ CS2 $end
$var reg 1 % CS3 $end
$var reg 1 & CS4 $end
$var reg 20 ' Address [19:0] $end
$var wire 1 ( Data [7] $end
$var wire 1 ) Data [6] $end
$var wire 1 * Data [5] $end
$var wire 1 + Data [4] $end
$var wire 1 , Data [3] $end
$var wire 1 - Data [2] $end
$var wire 1 . Data [1] $end
$var wire 1 / Data [0] $end

$scope module p $end
$upscope $end

$scope module m1 $end
$var parameter 20 0 MSB $end
$var parameter 20 1 LSB $end
$var parameter 104 2 file $end
$var wire 1 3 CS $end
$var wire 1 4 Address [19] $end
$var wire 1 5 Address [18] $end
$var wire 1 6 Address [17] $end
$var wire 1 7 Address [16] $end
$var wire 1 8 Address [15] $end
$var wire 1 9 Address [14] $end
$var wire 1 : Address [13] $end
$var wire 1 ; Address [12] $end
$var wire 1 < Address [11] $end
$var wire 1 = Address [10] $end
$var wire 1 > Address [9] $end
$var wire 1 ? Address [8] $end
$var wire 1 @ Address [7] $end
$var wire 1 A Address [6] $end
$var wire 1 B Address [5] $end
$var wire 1 C Address [4] $end
$var wire 1 D Address [3] $end
$var wire 1 E Address [2] $end
$var wire 1 F Address [1] $end
$var wire 1 G Address [0] $end
$var wire 1 ( Data [7] $end
$var wire 1 ) Data [6] $end
$var wire 1 * Data [5] $end
$var wire 1 + Data [4] $end
$var wire 1 , Data [3] $end
$var wire 1 - Data [2] $end
$var wire 1 . Data [1] $end
$var wire 1 / Data [0] $end
$var reg 8 H DATA_REG [7:0] $end
$var reg 20 I ADD_REG [19:0] $end
$var reg 1 J LOAD $end
$var reg 1 K OE $end
$var reg 1 L WRENB $end
$var reg 5 M CURRENT_STATE [4:0] $end
$var reg 5 N NEXT_STATE [4:0] $end
$upscope $end

$scope module m2 $end
$var parameter 20 O MSB $end
$var parameter 20 P LSB $end
$var parameter 104 Q file $end
$var wire 1 R CS $end
$var wire 1 S Address [19] $end
$var wire 1 T Address [18] $end
$var wire 1 U Address [17] $end
$var wire 1 V Address [16] $end
$var wire 1 W Address [15] $end
$var wire 1 X Address [14] $end
$var wire 1 Y Address [13] $end
$var wire 1 Z Address [12] $end
$var wire 1 [ Address [11] $end
$var wire 1 \ Address [10] $end
$var wire 1 ] Address [9] $end
$var wire 1 ^ Address [8] $end
$var wire 1 _ Address [7] $end
$var wire 1 ` Address [6] $end
$var wire 1 a Address [5] $end
$var wire 1 b Address [4] $end
$var wire 1 c Address [3] $end
$var wire 1 d Address [2] $end
$var wire 1 e Address [1] $end
$var wire 1 f Address [0] $end
$var wire 1 ( Data [7] $end
$var wire 1 ) Data [6] $end
$var wire 1 * Data [5] $end
$var wire 1 + Data [4] $end
$var wire 1 , Data [3] $end
$var wire 1 - Data [2] $end
$var wire 1 . Data [1] $end
$var wire 1 / Data [0] $end
$var reg 8 g DATA_REG [7:0] $end
$var reg 20 h ADD_REG [19:0] $end
$var reg 1 i LOAD $end
$var reg 1 j OE $end
$var reg 1 k WRENB $end
$var reg 5 l CURRENT_STATE [4:0] $end
$var reg 5 m NEXT_STATE [4:0] $end
$upscope $end

$scope module m3 $end
$var parameter 16 n MSB $end
$var parameter 16 o LSB $end
$var parameter 88 p file $end
$var wire 1 q CS $end
$var wire 1 r Address [19] $end
$var wire 1 s Address [18] $end
$var wire 1 t Address [17] $end
$var wire 1 u Address [16] $end
$var wire 1 v Address [15] $end
$var wire 1 w Address [14] $end
$var wire 1 x Address [13] $end
$var wire 1 y Address [12] $end
$var wire 1 z Address [11] $end
$var wire 1 { Address [10] $end
$var wire 1 | Address [9] $end
$var wire 1 } Address [8] $end
$var wire 1 ~ Address [7] $end
$var wire 1 !! Address [6] $end
$var wire 1 "! Address [5] $end
$var wire 1 #! Address [4] $end
$var wire 1 $! Address [3] $end
$var wire 1 %! Address [2] $end
$var wire 1 &! Address [1] $end
$var wire 1 '! Address [0] $end
$var wire 1 ( Data [7] $end
$var wire 1 ) Data [6] $end
$var wire 1 * Data [5] $end
$var wire 1 + Data [4] $end
$var wire 1 , Data [3] $end
$var wire 1 - Data [2] $end
$var wire 1 . Data [1] $end
$var wire 1 / Data [0] $end
$var reg 8 (! DATA_REG [7:0] $end
$var reg 20 )! ADD_REG [19:0] $end
$var reg 1 *! LOAD $end
$var reg 1 +! OE $end
$var reg 1 ,! WRENB $end
$var reg 5 -! CURRENT_STATE [4:0] $end
$var reg 5 .! NEXT_STATE [4:0] $end
$upscope $end

$scope module m4 $end
$var parameter 16 /! MSB $end
$var parameter 16 0! LSB $end
$var parameter 88 1! file $end
$var wire 1 2! CS $end
$var wire 1 3! Address [19] $end
$var wire 1 4! Address [18] $end
$var wire 1 5! Address [17] $end
$var wire 1 6! Address [16] $end
$var wire 1 7! Address [15] $end
$var wire 1 8! Address [14] $end
$var wire 1 9! Address [13] $end
$var wire 1 :! Address [12] $end
$var wire 1 ;! Address [11] $end
$var wire 1 <! Address [10] $end
$var wire 1 =! Address [9] $end
$var wire 1 >! Address [8] $end
$var wire 1 ?! Address [7] $end
$var wire 1 @! Address [6] $end
$var wire 1 A! Address [5] $end
$var wire 1 B! Address [4] $end
$var wire 1 C! Address [3] $end
$var wire 1 D! Address [2] $end
$var wire 1 E! Address [1] $end
$var wire 1 F! Address [0] $end
$var wire 1 ( Data [7] $end
$var wire 1 ) Data [6] $end
$var wire 1 * Data [5] $end
$var wire 1 + Data [4] $end
$var wire 1 , Data [3] $end
$var wire 1 - Data [2] $end
$var wire 1 . Data [1] $end
$var wire 1 / Data [0] $end
$var reg 8 G! DATA_REG [7:0] $end
$var reg 20 H! ADD_REG [19:0] $end
$var reg 1 I! LOAD $end
$var reg 1 J! OE $end
$var reg 1 K! WRENB $end
$var reg 5 L! CURRENT_STATE [4:0] $end
$var reg 5 M! NEXT_STATE [4:0] $end
$upscope $end
$upscope $end

$scope begin std $end
$upscope $end
$enddefinitions $end
#0
$dumpvars
0!
0"
0#
0$
0%
0&
bx '
bx H
bx I
0J
0K
0L
bx M
bx N
bx g
bx h
0i
0j
0k
bx l
bx m
bx (!
bx )!
0*!
0+!
0,!
bx -!
bx .!
bx G!
bx H!
0I!
0J!
0K!
bx L!
bx M!
b10000000000000000000 0
b11111111111111111111 1
b0 O
b1111111111111111111 P
b1110000000000 n
b1110111111111 o
b1111111100000000 /!
b1111111100001111 0!
b1001101010001010100110100110001011101000111001001100001011000110110010100101110011101000111100001110100 2
b1001101010001010100110100110010011101000111001001100001011000110110010100101110011101000111100001110100 Q
b100100101001111010100000100111101010010010101000011001000101110011101000111100001110100 p
b100100101001111010100000100111101010010010101000011000100101110011101000111100001110100 1!
z/
z.
z-
z,
z+
z*
z)
z(
xF!
xE!
xD!
xC!
xB!
xA!
x@!
x?!
x>!
x=!
x<!
x;!
x:!
x9!
x8!
x7!
x6!
x5!
x4!
x3!
02!
x'!
x&!
x%!
x$!
x#!
x"!
x!!
x~
x}
x|
x{
xz
xy
xx
xw
xv
xu
xt
xs
xr
0q
xf
xe
xd
xc
xb
xa
x`
x_
x^
x]
x\
x[
xZ
xY
xX
xW
xV
xU
xT
xS
0R
xG
xF
xE
xD
xC
xB
xA
x@
x?
x>
x=
x<
x;
x:
x9
x8
x7
x6
x5
x4
03
$end
#50
1!
#100
0!
#150
1!
1"
#200
0!
#250
1!
b1 M
b1 l
b1 -!
b1 L!
b1 M!
b1 .!
b1 m
b1 N
#300
0!
#350
1!
#400
0!
#450
1!
#500
0!
#550
1!
#600
0!
#650
1!
0"
#700
0!
#750
1!
#800
0!
#850
1!
#900
0!
#950
1!
#1000
0!
#1050
1!
#1100
0!
#1150
1!
#1200
0!
#1250
1!
#1300
0!
#1350
1!
#1400
0!
#1450
1!
#1500
0!
#1550
1!
#1600
0!
#1650
1!
#1700
0!
#1750
1!
#1800
0!
#1850
1!
#1900
0!
#1950
1!
#2000
0!
#2050
1!
#2100
0!
#2150
1!
#2200
0!
#2250
1!
#2300
0!
#2350
1!
#2400
0!
#2450
1!
#2500
0!
#2550
1!
#2600
0!
#2650
1!
#2700
0!
#2750
1!
#2800
0!
#2850
1!
#2900
0!
#2950
1!
#3000
0!
#3050
1!
#3100
0!
#3150
1!
#3200
0!
#3250
1!
#3300
0!
#3350
1!
#3400
0!
#3450
1!
#3500
0!
#3550
1!
#3600
0!
#3650
1!
#3700
0!
#3750
1!
#3800
0!
#3850
1!
#3900
0!
#3950
1!
#4000
0!
#4050
1!
#4100
0!
#4150
1!
#4200
0!
#4250
1!
#4300
0!
#4350
1!
#4400
0!
#4450
1!
#4500
0!
#4550
1!
#4600
0!
#4650
1!
#4700
0!
#4750
1!
#4800
0!
#4850
1!
#4900
0!
#4950
1!
#5000
0!
#5050
1!
#5100
0!
#5150
1!
#5200
0!
#5250
1!
#5300
0!
#5350
1!
#5400
0!
#5450
1!
#5500
0!
#5550
1!
#5600
0!
#5650
1!
#5700
0!
#5750
1!
#5800
0!
#5850
1!
#5900
0!
#5950
1!
#6000
0!
#6050
1!
#6100
0!
#6150
1!
#6200
0!
#6250
1!
#6300
0!
#6350
1!
#6400
0!
#6450
1!
#6500
0!
#6550
1!
#6600
0!
#6650
1!
#6700
0!
#6750
1!
#6800
0!
#6850
1!
#6900
0!
#6950
1!
#7000
0!
#7050
1!
#7100
0!
#7150
1!
#7200
0!
#7250
1!
#7300
0!
#7350
1!
#7400
0!
#7450
1!
#7500
0!
#7550
1!
#7600
0!
#7650
1!
#7700
0!
#7750
1!
#7800
0!
#7850
1!
#7900
0!
#7950
1!
#8000
0!
#8050
1!
#8100
0!
#8150
1!
#8200
0!
#8250
1!
#8300
0!
#8350
1!
#8400
0!
#8450
1!
#8500
0!
#8550
1!
#8600
0!
#8650
1!
#8700
0!
#8750
1!
#8800
0!
#8850
1!
#8900
0!
#8950
1!
#9000
0!
#9050
1!
#9100
0!
#9150
1!
#9200
0!
#9250
1!
#9300
0!
#9350
1!
#9400
0!
#9450
1!
#9500
0!
#9550
1!
#9600
0!
#9650
1!
#9700
0!
#9750
1!
#9800
0!
#9850
1!
#9900
0!
#9950
1!
#10000
0!
#10050
1!
#10100
0!
#10150
1!
#10200
0!
#10250
1!
#10300
0!
#10350
1!
#10400
0!
#10450
1!
#10500
0!
#10550
1!
#10600
0!
#10650
1!
#10700
0!
b1111111111111110 '
0F!
1E!
1D!
1C!
1B!
1A!
1@!
1?!
1>!
1=!
1<!
1;!
1:!
19!
18!
17!
06!
05!
04!
03!
0'!
1&!
1%!
1$!
1#!
1"!
1!!
1~
1}
1|
1{
1z
1y
1x
1w
1v
0u
0t
0s
0r
0f
1e
1d
1c
1b
1a
1`
1_
1^
1]
1\
1[
1Z
1Y
1X
1W
0V
0U
0T
0S
0G
1F
1E
1D
1C
1B
1A
1@
1?
1>
1=
1<
1;
1:
19
18
07
06
05
04
1$
1R
b10 m
#10750
1!
b1 m
b10 l
1i
b10 m
b1111111111111110 h
#10800
0!
b100 m
#10850
1!
b100 l
0i
1j
b10000 m
0/
1.
1-
1,
1+
1*
1)
1(
#10900
0!
#10950
1!
b10000 l
0j
b1 m
z/
z.
z-
z,
z+
z*
z)
z(
#11000
0!
#11050
1!
b10000 m
b1 m
0$
0R
b10000 m
b1 m
b1 l
#11100
0!
1$
1R
b10 m
b1111111111111111 '
1F!
1'!
1f
1G
#11150
1!
b1 m
b10 l
1i
b10 m
b1111111111111111 h
#11200
0!
b100 m
#11250
1!
b100 l
0i
1j
b10000 m
1/
1.
1-
1,
1+
1*
1)
1(
#11300
0!
#11350
1!
b10000 l
0j
b1 m
z/
z.
z-
z,
z+
z*
z)
z(
#11400
0!
#11450
1!
b10000 m
b1 m
0$
0R
b10000 m
b1 m
b1 l
